{
  "runID": "34fbb190-c05d-4887-9727-4c8130f67765",
  "seed": 1664758196821,
  "clinicianSeed": 1664758196821,
  "referenceTime": "20221003",
  "endTime": "20221003",
  "version": "32478f4\n",
  "patientCount": 118,
  "providerCount": 10113,
  "payerCount": 9,
  "javaVersion": "11.0.16",
  "generate.thread_pool_size": -1,
  "generatorThreads": 16,
  "runStartTime": "2022-10-03T00:49:56Z",
  "runTimeInSeconds": 26,
  "exporter.years_of_history": "10",
  "state": "Massachusetts",
  "modules": "*"
}
